<svg width="24" height="24" viewBox="0 0 24 24" fill="none" xmlns="http://www.w3.org/2000/svg">
<path fill-rule="evenodd" clip-rule="evenodd" d="M12 0L24 8H0L12 0ZM3.30278 7L12 1.20185L20.6972 7H3.30278Z" fill="#616161"/>
<path d="M0 23V24L24 24V23L0 23Z" fill="#616161"/>
<path d="M7.38461 10.1538H1.84615V9.15385H7.38461V10.1538Z" fill="#616161"/>
<path d="M2.76923 12H6.46154V11H2.76923V12Z" fill="#616161"/>
<path d="M2.76923 22.1538L2.76923 12.9231H3.76923L3.76923 22.1538L2.76923 22.1538Z" fill="#616161"/>
<path d="M5.53846 12.9231L5.53846 22.1538L6.53846 22.1538L6.53846 12.9231H5.53846Z" fill="#616161"/>
<path d="M9.23077 10.1538V9.15385H14.7692V10.1538H9.23077Z" fill="#616161"/>
<path d="M10.1538 11V12H13.8462V11H10.1538Z" fill="#616161"/>
<path d="M10.1538 22.1538V12.9231H11.1538V22.1538L10.1538 22.1538Z" fill="#616161"/>
<path d="M12.9231 12.9231V22.1538L13.9231 22.1538V12.9231H12.9231Z" fill="#616161"/>
<path d="M22.1538 10.1538H16.6154V9.15385H22.1538V10.1538Z" fill="#616161"/>
<path d="M17.5385 12H21.2308V11H17.5385V12Z" fill="#616161"/>
<path d="M17.5385 22.1538V12.9231H18.5385V22.1538L17.5385 22.1538Z" fill="#616161"/>
<path d="M20.3077 12.9231V22.1538L21.3077 22.1538V12.9231H20.3077Z" fill="#616161"/>
</svg>
