<svg width="25" height="25" viewBox="0 0 25 25" fill="none" xmlns="http://www.w3.org/2000/svg">
<path fill-rule="evenodd" clip-rule="evenodd" d="M4.99976 1.99225H19.999V0.992249H4.99976V1.99225ZM2.99992 4.99211L21.999 4.99212V4.99154C22.0185 4.99544 22.038 4.99957 22.0574 5.00393C22.3621 5.07232 22.6533 5.19648 22.9156 5.37178C23.335 5.65197 23.6618 6.05021 23.8548 6.51615C24.0478 6.98209 24.0983 7.4948 23.9999 7.98944C23.9015 8.48408 23.6587 8.93844 23.302 9.29505C22.9454 9.65166 22.4911 9.89452 21.9964 9.99291C21.5018 10.0913 20.9891 10.0408 20.5231 9.84781C20.0572 9.65481 19.659 9.32798 19.3788 8.90864C19.2035 8.64629 19.0793 8.35511 19.0109 8.05036C19.0045 8.02175 18.9986 7.99302 18.9931 7.96419C18.985 7.92105 18.9724 7.87914 18.9558 7.83923C18.8734 7.64066 18.6925 7.49197 18.4741 7.49197C18.2118 7.49197 17.9958 7.70558 18.0313 7.96548C18.0393 8.02396 18.0487 8.08219 18.0597 8.1401C18.0718 8.20448 18.0857 8.26848 18.1014 8.33201C18.1982 8.72354 18.3625 9.09749 18.589 9.43637C18.9735 10.0119 19.5201 10.4605 20.1596 10.7254C20.7991 10.9903 21.5028 11.0596 22.1817 10.9246C22.8606 10.7895 23.4843 10.4562 23.9737 9.96673C24.4632 9.47727 24.7965 8.85366 24.9315 8.17476C25.0666 7.49586 24.9973 6.79216 24.7324 6.15265C24.4675 5.51313 24.0189 4.96654 23.4434 4.58197C23.1045 4.35553 22.7305 4.19126 22.339 4.09445C22.2755 4.07874 22.2115 4.06481 22.1471 4.05268C22.0979 4.04341 22.0486 4.0352 21.999 4.02804V3.99212L2.99992 3.99211V4.02803C2.95031 4.03519 2.90089 4.04341 2.85171 4.05268C2.78732 4.06481 2.72332 4.07874 2.65979 4.09445C2.26826 4.19126 1.89432 4.35553 1.55543 4.58197C0.979886 4.96654 0.531304 5.51313 0.26641 6.15265C0.00151641 6.79216 -0.0677919 7.49586 0.0672498 8.17476C0.202292 8.85366 0.535618 9.47727 1.02508 9.96673C1.51454 10.4562 2.13815 10.7895 2.81705 10.9246C3.49595 11.0596 4.19965 10.9903 4.83916 10.7254C5.47867 10.4605 6.02527 10.0119 6.40984 9.43637C6.63627 9.09749 6.80054 8.72354 6.89735 8.33201C6.91306 8.26848 6.92699 8.20448 6.93913 8.1401C6.95004 8.08219 6.9595 8.02396 6.96749 7.96548C7.00298 7.70558 6.78702 7.49197 6.52472 7.49197C6.3063 7.49197 6.12542 7.64066 6.04296 7.83923C6.02639 7.87914 6.01379 7.92105 6.00566 7.96419C6.00023 7.99302 5.9943 8.02175 5.98788 8.05036C5.91948 8.35511 5.79532 8.64629 5.62003 8.90864C5.33984 9.32798 4.94159 9.65481 4.47565 9.84781C4.00971 10.0408 3.497 10.0913 3.00236 9.99291C2.50773 9.89452 2.05337 9.65166 1.69676 9.29505C1.34014 8.93844 1.09728 8.48408 0.998892 7.98944C0.900502 7.4948 0.951 6.98209 1.144 6.51615C1.337 6.05021 1.66383 5.65197 2.08316 5.37178C2.34551 5.19648 2.63669 5.07232 2.94144 5.00393C2.96088 4.99956 2.98037 4.99543 2.99992 4.99152V4.99211ZM12 24.9845L12 7.9845H13L13 24.9845H12ZM9 10.9845L9 24.9845H10L10 10.9845H9ZM15 24.9845L15 10.9845H16V24.9845H15ZM18 11.9845V23.9845H19V11.9845H18ZM6 23.9845L6 11.9845H7L7 23.9845H6Z" fill="#616161"/>
</svg>
